<svg width="215" height="40" viewBox="0 0 215 40" fill="none" xmlns="http://www.w3.org/2000/svg">
<path fill-rule="evenodd" clip-rule="evenodd" d="M4.0995 28.6458C2.46292 28.0333 1.66894 26.3271 2.3333 24.8396L6.2708 16.2937V29.4625L4.0995 28.6458ZM35.6968 23.25C36.3773 24.7229 35.5833 26.4292 33.9306 27.0417L22.0046 31.4896C21.5995 31.6354 21.1782 31.7083 20.7569 31.7083C19.4931 31.6937 18.294 31.0229 17.7917 29.9146L9.75459 12.4583C9.57635 12.0792 9.49533 11.6854 9.51154 11.2917C9.54394 10.1687 10.2893 9.11875 11.5046 8.66667L23.4468 4.21875C23.8681 4.05833 24.3056 4 24.7268 4C25.9745 4.02917 27.1574 4.7 27.6597 5.79375L35.6968 23.25ZM20.7893 28.7917L32.6991 24.3438L24.6782 6.91667H24.662L12.7523 11.35L20.7893 28.7917ZM17.8241 14.5729C16.9291 14.5729 16.2037 13.92 16.2037 13.1146C16.2037 12.3092 16.9291 11.6562 17.8241 11.6562C18.719 11.6562 19.4444 12.3092 19.4444 13.1146C19.4444 13.92 18.719 14.5729 17.8241 14.5729ZM9.52774 28.7917V19.5458L15.118 31.7083H12.7685C10.9861 31.7083 9.52774 30.3958 9.52774 28.7917Z" fill="white"/>
<path d="M51.3965 27.25C51.0151 27.25 50.6945 27.12 50.4345 26.86C50.1745 26.6 50.0445 26.2793 50.0445 25.898V8.296C50.0445 7.89733 50.1745 7.57667 50.4345 7.334C50.6945 7.074 51.0151 6.944 51.3965 6.944H57.6105C58.7891 6.944 59.8205 7.178 60.7045 7.646C61.6058 8.09667 62.3078 8.72933 62.8105 9.544C63.3305 10.3587 63.5905 11.2947 63.5905 12.352C63.5905 13.2013 63.3565 13.9727 62.8885 14.666C62.4378 15.342 61.8138 15.8793 61.0165 16.278C62.1605 16.5553 63.0791 17.1013 63.7725 17.916C64.4658 18.7307 64.8125 19.7967 64.8125 21.114C64.8125 22.31 64.5265 23.3673 63.9545 24.286C63.3998 25.2047 62.6198 25.9327 61.6145 26.47C60.6091 26.99 59.4565 27.25 58.1565 27.25H51.3965ZM52.7485 15.29H57.6105C58.5985 15.29 59.4045 15.0473 60.0285 14.562C60.6698 14.0767 60.9905 13.34 60.9905 12.352C60.9905 11.364 60.6698 10.636 60.0285 10.168C59.4045 9.68267 58.5985 9.44 57.6105 9.44H52.7485V15.29ZM52.7485 24.754H58.1565C59.3351 24.754 60.3058 24.4507 61.0685 23.844C61.8311 23.22 62.2125 22.31 62.2125 21.114C62.2125 20.0047 61.8311 19.1727 61.0685 18.618C60.3058 18.0633 59.3351 17.786 58.1565 17.786H52.7485V24.754ZM75.0215 27.354C73.6175 27.354 72.3782 27.0507 71.3035 26.444C70.2289 25.82 69.3795 24.9707 68.7555 23.896C68.1489 22.804 67.8455 21.556 67.8455 20.152C67.8455 18.7307 68.1489 17.4827 68.7555 16.408C69.3795 15.316 70.2289 14.4667 71.3035 13.86C72.3782 13.236 73.6175 12.924 75.0215 12.924C76.4082 12.924 77.6389 13.236 78.7135 13.86C79.7882 14.4667 80.6289 15.316 81.2355 16.408C81.8595 17.4827 82.1715 18.7307 82.1715 20.152C82.1715 21.556 81.8682 22.804 81.2615 23.896C80.6549 24.9707 79.8142 25.82 78.7395 26.444C77.6649 27.0507 76.4255 27.354 75.0215 27.354ZM75.0215 25.014C75.9229 25.014 76.7202 24.806 77.4135 24.39C78.1069 23.974 78.6442 23.402 79.0255 22.674C79.4242 21.946 79.6235 21.1053 79.6235 20.152C79.6235 19.1987 79.4242 18.358 79.0255 17.63C78.6442 16.8847 78.1069 16.304 77.4135 15.888C76.7202 15.472 75.9229 15.264 75.0215 15.264C74.1202 15.264 73.3229 15.472 72.6295 15.888C71.9362 16.304 71.3902 16.8847 70.9915 17.63C70.5929 18.358 70.3935 19.1987 70.3935 20.152C70.3935 21.1053 70.5929 21.946 70.9915 22.674C71.3902 23.402 71.9362 23.974 72.6295 24.39C73.3229 24.806 74.1202 25.014 75.0215 25.014ZM92.5664 27.354C91.1624 27.354 89.9231 27.0507 88.8484 26.444C87.7738 25.82 86.9244 24.9707 86.3004 23.896C85.6938 22.804 85.3904 21.556 85.3904 20.152C85.3904 18.7307 85.6938 17.4827 86.3004 16.408C86.9244 15.316 87.7738 14.4667 88.8484 13.86C89.9231 13.236 91.1624 12.924 92.5664 12.924C93.9531 12.924 95.1838 13.236 96.2584 13.86C97.3331 14.4667 98.1738 15.316 98.7804 16.408C99.4044 17.4827 99.7164 18.7307 99.7164 20.152C99.7164 21.556 99.4131 22.804 98.8064 23.896C98.1998 24.9707 97.3591 25.82 96.2844 26.444C95.2098 27.0507 93.9704 27.354 92.5664 27.354ZM92.5664 25.014C93.4678 25.014 94.2651 24.806 94.9584 24.39C95.6518 23.974 96.1891 23.402 96.5704 22.674C96.9691 21.946 97.1684 21.1053 97.1684 20.152C97.1684 19.1987 96.9691 18.358 96.5704 17.63C96.1891 16.8847 95.6518 16.304 94.9584 15.888C94.2651 15.472 93.4678 15.264 92.5664 15.264C91.6651 15.264 90.8678 15.472 90.1744 15.888C89.4811 16.304 88.9351 16.8847 88.5364 17.63C88.1378 18.358 87.9384 19.1987 87.9384 20.152C87.9384 21.1053 88.1378 21.946 88.5364 22.674C88.9351 23.402 89.4811 23.974 90.1744 24.39C90.8678 24.806 91.6651 25.014 92.5664 25.014ZM104.937 27.25C104.556 27.25 104.244 27.1373 104.001 26.912C103.776 26.6693 103.663 26.3573 103.663 25.976V8.218C103.663 7.83667 103.776 7.53333 104.001 7.308C104.244 7.06533 104.556 6.944 104.937 6.944C105.319 6.944 105.622 7.06533 105.847 7.308C106.09 7.53333 106.211 7.83667 106.211 8.218V18.8L112.529 13.158C112.789 12.9153 113.075 12.8027 113.387 12.82C113.717 12.8373 113.994 12.976 114.219 13.236C114.462 13.496 114.575 13.782 114.557 14.094C114.54 14.406 114.401 14.6833 114.141 14.926L109.357 19.19L114.401 25.378C114.627 25.6553 114.722 25.9587 114.687 26.288C114.67 26.6 114.514 26.8773 114.219 27.12C113.942 27.3453 113.63 27.4407 113.283 27.406C112.954 27.3887 112.677 27.2413 112.451 26.964L107.511 20.854L106.211 21.998V25.976C106.211 26.3573 106.09 26.6693 105.847 26.912C105.622 27.1373 105.319 27.25 104.937 27.25ZM119.766 27.25C118.899 27.25 118.466 26.8167 118.466 25.95V14.328C118.466 13.4613 118.899 13.028 119.766 13.028C120.633 13.028 121.066 13.4613 121.066 14.328V14.822C121.586 14.2153 122.219 13.7387 122.964 13.392C123.727 13.0453 124.55 12.872 125.434 12.872C126.474 12.872 127.245 13.0453 127.748 13.392C128.268 13.7213 128.467 14.12 128.346 14.588C128.259 14.952 128.086 15.1947 127.826 15.316C127.566 15.42 127.263 15.4373 126.916 15.368C125.807 15.1427 124.81 15.1253 123.926 15.316C123.042 15.5067 122.34 15.862 121.82 16.382C121.317 16.902 121.066 17.5607 121.066 18.358V25.95C121.066 26.8167 120.633 27.25 119.766 27.25ZM136.518 27.354C135.114 27.354 133.874 27.0507 132.8 26.444C131.725 25.82 130.876 24.9707 130.252 23.896C129.645 22.804 129.342 21.556 129.342 20.152C129.342 18.7307 129.645 17.4827 130.252 16.408C130.876 15.316 131.725 14.4667 132.8 13.86C133.874 13.236 135.114 12.924 136.518 12.924C137.904 12.924 139.135 13.236 140.21 13.86C141.284 14.4667 142.125 15.316 142.732 16.408C143.356 17.4827 143.668 18.7307 143.668 20.152C143.668 21.556 143.364 22.804 142.758 23.896C142.151 24.9707 141.31 25.82 140.236 26.444C139.161 27.0507 137.922 27.354 136.518 27.354ZM136.518 25.014C137.419 25.014 138.216 24.806 138.91 24.39C139.603 23.974 140.14 23.402 140.522 22.674C140.92 21.946 141.12 21.1053 141.12 20.152C141.12 19.1987 140.92 18.358 140.522 17.63C140.14 16.8847 139.603 16.304 138.91 15.888C138.216 15.472 137.419 15.264 136.518 15.264C135.616 15.264 134.819 15.472 134.126 15.888C133.432 16.304 132.886 16.8847 132.488 17.63C132.089 18.358 131.89 19.1987 131.89 20.152C131.89 21.1053 132.089 21.946 132.488 22.674C132.886 23.402 133.432 23.974 134.126 24.39C134.819 24.806 135.616 25.014 136.518 25.014ZM154.063 27.354C152.659 27.354 151.419 27.0507 150.345 26.444C149.27 25.82 148.421 24.9707 147.797 23.896C147.19 22.804 146.887 21.556 146.887 20.152C146.887 18.7307 147.19 17.4827 147.797 16.408C148.421 15.316 149.27 14.4667 150.345 13.86C151.419 13.236 152.659 12.924 154.063 12.924C155.449 12.924 156.68 13.236 157.755 13.86C158.829 14.4667 159.67 15.316 160.277 16.408C160.901 17.4827 161.213 18.7307 161.213 20.152C161.213 21.556 160.909 22.804 160.303 23.896C159.696 24.9707 158.855 25.82 157.781 26.444C156.706 27.0507 155.467 27.354 154.063 27.354ZM154.063 25.014C154.964 25.014 155.761 24.806 156.455 24.39C157.148 23.974 157.685 23.402 158.067 22.674C158.465 21.946 158.665 21.1053 158.665 20.152C158.665 19.1987 158.465 18.358 158.067 17.63C157.685 16.8847 157.148 16.304 156.455 15.888C155.761 15.472 154.964 15.264 154.063 15.264C153.161 15.264 152.364 15.472 151.671 15.888C150.977 16.304 150.431 16.8847 150.033 17.63C149.634 18.358 149.435 19.1987 149.435 20.152C149.435 21.1053 149.634 21.946 150.033 22.674C150.431 23.402 150.977 23.974 151.671 24.39C152.364 24.806 153.161 25.014 154.063 25.014ZM166.485 27.276C166.104 27.276 165.783 27.1547 165.523 26.912C165.281 26.652 165.159 26.3313 165.159 25.95V14.38C165.159 13.9813 165.281 13.6607 165.523 13.418C165.783 13.1753 166.104 13.054 166.485 13.054C166.884 13.054 167.205 13.1753 167.447 13.418C167.69 13.6607 167.811 13.964 167.811 14.328C168.262 13.8773 168.799 13.5307 169.423 13.288C170.047 13.028 170.723 12.898 171.451 12.898C173.271 12.898 174.641 13.5827 175.559 14.952C176.062 14.3107 176.703 13.808 177.483 13.444C178.263 13.08 179.139 12.898 180.109 12.898C181.6 12.898 182.813 13.3833 183.749 14.354C184.685 15.3247 185.153 16.7113 185.153 18.514V25.95C185.153 26.3313 185.032 26.652 184.789 26.912C184.547 27.1547 184.226 27.276 183.827 27.276C183.446 27.276 183.125 27.1547 182.865 26.912C182.623 26.652 182.501 26.3313 182.501 25.95V18.514C182.501 17.422 182.233 16.616 181.695 16.096C181.158 15.5587 180.456 15.29 179.589 15.29C178.688 15.29 177.943 15.602 177.353 16.226C176.781 16.85 176.495 17.6473 176.495 18.618V25.95C176.495 26.3313 176.374 26.652 176.131 26.912C175.889 27.1547 175.568 27.276 175.169 27.276C174.788 27.276 174.467 27.1547 174.207 26.912C173.965 26.652 173.843 26.3313 173.843 25.95V18.514C173.843 17.422 173.575 16.616 173.037 16.096C172.5 15.5587 171.798 15.29 170.931 15.29C170.03 15.29 169.285 15.602 168.695 16.226C168.106 16.85 167.811 17.6473 167.811 18.618V25.95C167.811 26.3313 167.69 26.652 167.447 26.912C167.205 27.1547 166.884 27.276 166.485 27.276Z" fill="white"/>
</svg>
